Join two tables based on a geo distance of longitudes and latitudes — geo_join • fuzzyjoin
…
s1 <- rename(states, state1 = state)
s2 <- rename(states, state2 = state)

pairs <- s1 %>%
 geo_inner_join(s2, max_dist = 200) %>%
 filter(state1 != state2)
#> Joining by: c("longitude", "latitude")

pairs
#> # A tibble: 74 x 6
#>    state1      longitude.x latitude.x state2        longitude.y latitude.y
#>    <chr>             <dbl>      <dbl> <chr>               <dbl>      <dbl>
#>  1 Alabama           -86.8       32.6 Georgia             -83.4       32.3
#>  2 Alabama           -86.8       32.6 Mississippi         -89.8       32.7
#>  3 Connecticut       -72.4       41.6 Massachusetts       -71.6       42.4
#>  4 Connecticut       -72.4       41.6 New Hampshire       -71.4       43.4
#>  5 Connecticut       -72.4       41.6 New Jersey          -74.2       40.0
#>  6 Connecticut       -72.4       41.6 New York            -75.1       43.1
#>  7 Connecticut       -72.4       41.6 Rhode Island        -71.1       41.6
#>  8 Connecticut       -72.4       41.6 Vermont             -72.5       44.3
#>  9 Delaware          -75.0       38.7 Maryland            -76.6       39.3
#> 10 Delaware          -75.0       38.7 New Jersey          -74.2       40.0
#> # … with 64 more rows
…
# also get distances
s1 %>%
  geo_inner_join(s2, max_dist = 200, distance_col = "distance")
#> Joining by: c("longitude", "latitude")
#> # A tibble: 124 x 7
#>    state1     longitude.x latitude.x state2      longitude.y latitude.y distance
#>    <chr>            <dbl>      <dbl> <chr>             <dbl>      <dbl>    <dbl>
#>  1 Alabama          -86.8       32.6 Alabama           -86.8       32.6      0  
#>  2 Alabama          -86.8       32.6 Georgia           -83.4       32.3    198. 
#>  3 Alabama          -86.8       32.6 Mississippi       -89.8       32.7    178. 
#>  4 Alaska          -127.        49.2 Alaska           -127.        49.2      0  
#>  5 Arizona         -112.        34.2 Arizona          -112.        34.2      0  
#>  6 Arkansas         -92.3       34.7 Arkansas          -92.3       34.7      0  
#>  7 California      -120.        36.5 California       -120.        36.5      0  
#>  8 Colorado        -106.        38.7 Colorado         -106.        38.7      0  
#>  9 Connectic…       -72.4       41.6 Connecticut       -72.4       41.6      0  
#> 10 Connectic…       -72.4       41.6 Massachuse…       -71.6       42.4     66.7
#> # … with 114 more rows
…
