Join two tables based on fuzzy string matching of their columns — stringdist_join • fuzzyjoin
…
# no matches when they are inner-joined:
diamonds %>%
  inner_join(d, by = c(cut = "approximate_name"))
#> # A tibble: 0 x 11
#> # … with 11 variables: carat <dbl>, cut <chr>, color <ord>, clarity <ord>,
#> #   depth <dbl>, table <dbl>, price <int>, x <dbl>, y <dbl>, z <dbl>,
#> #   type <int>

# but we can match when they're fuzzy joined
diamonds %>%
 stringdist_inner_join(d, by = c(cut = "approximate_name"))
#> # A tibble: 74,907 x 12
#>    carat cut   color clarity depth table price     x     y     z
#>    <dbl> <ord> <ord> <ord>   <dbl> <dbl> <int> <dbl> <dbl> <dbl>
#>  1 0.23  Ideal E     SI2      61.5    55   326  3.95  3.98  2.43
#>  2 0.21  Prem… E     SI1      59.8    61   326  3.89  3.84  2.31
#>  3 0.21  Prem… E     SI1      59.8    61   326  3.89  3.84  2.31
#>  4 0.290 Prem… I     VS2      62.4    58   334  4.2   4.23  2.63
#>  5 0.290 Prem… I     VS2      62.4    58   334  4.2   4.23  2.63
#>  6 0.24  Very… J     VVS2     62.8    57   336  3.94  3.96  2.48
#>  7 0.24  Very… J     VVS2     62.8    57   336  3.94  3.96  2.48
#>  8 0.24  Very… I     VVS1     62.3    57   336  3.95  3.98  2.47
#>  9 0.24  Very… I     VVS1     62.3    57   336  3.95  3.98  2.47
#> 10 0.26  Very… H     SI1      61.9    55   337  4.07  4.11  2.53
#> # … with 74,897 more rows, and 2 more variables: approximate_name <chr>,
#> #   type <int>
…
